<svg xmlns="http://www.w3.org/2000/svg" width="203.975" height="39.753" viewBox="0 0 203.975 39.753">
  <defs>
    <style>
      .cls-1 {
        fill: #fff;
      }
    </style>
  </defs>
  <g id="VocalisHealth_-_Logo_-_Black" data-name="VocalisHealth - Logo - Black" transform="translate(-59.644 -54.647)">
    <path id="Path_13" data-name="Path 13" class="cls-1" d="M242.833,70.527h2.6v9.258h13.046V70.527h2.6v22.5h-2.6V82.161H245.435V93.024h-2.6Z" transform="translate(-74.374 -6.447)"/>
    <path id="Path_14" data-name="Path 14" class="cls-1" d="M280,89.7c0-4.6,3.182-8.2,7.94-8.2,5.173,0,7.294,4.533,7.294,8.131v.708H282.6c.321,3.213,2.86,5.236,6.489,5.236a9.223,9.223,0,0,0,5.018-1.447v2.251a9.707,9.707,0,0,1-5.53,1.478C283.791,97.866,280,94.555,280,89.7Zm12.663-1.414a4.6,4.6,0,0,0-4.853-4.5,4.924,4.924,0,0,0-5.172,4.5h10.025Z" transform="translate(-89.463 -10.905)"/>
    <path id="Path_15" data-name="Path 15" class="cls-1" d="M309.217,92.692c0-3.308,2.892-5.142,6.362-5.142a10.387,10.387,0,0,1,5.5,1.445V87.582c0-2.86-2.153-3.792-5.013-3.792a9.718,9.718,0,0,0-5.081,1.541V82.924a10.793,10.793,0,0,1,5.627-1.416c3.983,0,7,1.834,7,5.818v6.14c0,1.445.58,2.024,1.447,2.024a1.641,1.641,0,0,0,.9-.226v1.991a3.33,3.33,0,0,1-1.638.386,2.861,2.861,0,0,1-2.99-2.441,8.039,8.039,0,0,1-6.2,2.668C311.979,97.866,309.217,96.033,309.217,92.692Zm11.86.449V91.023a9.245,9.245,0,0,0-4.886-1.448c-2.734,0-4.4,1.124-4.4,2.989,0,2.153,1.928,3.019,4.049,3.019A6.961,6.961,0,0,0,321.077,93.142Z" transform="translate(-101.326 -10.905)"/>
    <path id="Path_16" data-name="Path 16" class="cls-1" d="M342.271,89.518V70.527h2.576v18.35c0,1.511.706,2.187,1.957,2.187a2.758,2.758,0,0,0,1.479-.386V92.96a5.116,5.116,0,0,1-2.348.449C344.169,93.408,342.271,92.573,342.271,89.518Z" transform="translate(-114.746 -6.447)"/>
    <path id="Path_17" data-name="Path 17" class="cls-1" d="M357.024,90.147v-9h-3.6V78.93h3.6V74.206h2.567V78.93h5.335v2.216h-5.335V89.4c0,2.316.772,3.152,2.637,3.152a4.666,4.666,0,0,0,2.5-.644V94.2a7.048,7.048,0,0,1-3.244.706C358.435,94.9,357.024,92.943,357.024,90.147Z" transform="translate(-119.273 -7.941)"/>
    <path id="Path_18" data-name="Path 18" class="cls-1" d="M378.475,93.024v-22.5h2.57v9.258a7.9,7.9,0,0,1,6.1-2.735c3.922,0,5.914,2.477,5.914,6.492v9.482h-2.571V84.087c0-3.919-2.442-4.627-4.241-4.627a6.578,6.578,0,0,0-5.208,3.117V93.024Z" transform="translate(-129.445 -6.447)"/>
    <path id="Path_19" data-name="Path 19" class="cls-1" d="M104.165,85.042c-.015.038-.037.074-.053.112h.124Z" transform="translate(-18.054 -12.34)"/>
    <path id="Path_20" data-name="Path 20" class="cls-1" d="M59.644,70.607h2.892l8.225,19.022,8.225-19.022h2.829L71.948,93.23h-2.44Z" transform="translate(0 -6.48)"/>
    <path id="Path_21" data-name="Path 21" class="cls-1" d="M111.64,89.785a8.455,8.455,0,1,1-8.449-8.194A8.122,8.122,0,0,1,111.64,89.785Zm-2.6,0a5.847,5.847,0,1,0-5.846,5.879A5.746,5.746,0,0,0,109.037,89.785Z" transform="translate(-14.248 -10.939)"/>
    <path id="Path_22" data-name="Path 22" class="cls-1" d="M155.162,92.772c0-3.31,2.892-5.139,6.362-5.139a10.352,10.352,0,0,1,5.5,1.445V87.664c0-2.859-2.153-3.792-5.012-3.792a9.693,9.693,0,0,0-5.076,1.543V83.006a10.763,10.763,0,0,1,5.623-1.414c3.985,0,7,1.831,7,5.815v6.137c0,1.448.579,2.024,1.447,2.024a1.657,1.657,0,0,0,.9-.223v1.99a3.326,3.326,0,0,1-1.638.387,2.863,2.863,0,0,1-2.989-2.442,8.041,8.041,0,0,1-6.2,2.668C157.927,97.947,155.162,96.114,155.162,92.772Zm11.858.45V91.1a9.269,9.269,0,0,0-4.882-1.445c-2.734,0-4.4,1.123-4.4,2.988,0,2.151,1.927,3.019,4.048,3.019A6.954,6.954,0,0,0,167.02,93.222Z" transform="translate(-38.78 -10.94)"/>
    <path id="Path_23" data-name="Path 23" class="cls-1" d="M188.205,89.6V70.607l2.571,2.6V88.955c0,1.513.707,2.187,1.962,2.187a2.776,2.776,0,0,0,1.478-.387v2.281a5.1,5.1,0,0,1-2.347.453C190.1,93.487,188.205,92.652,188.205,89.6Z" transform="translate(-52.195 -6.48)"/>
    <path id="Path_24" data-name="Path 24" class="cls-1" d="M204.381,70.448a1.726,1.726,0,0,1,1.735,1.736,1.708,1.708,0,0,1-1.735,1.734,1.688,1.688,0,0,1-1.733-1.734A1.706,1.706,0,0,1,204.381,70.448Z" transform="translate(-58.059 -6.415)"/>
    <rect id="Rectangle_60" data-name="Rectangle 60" class="cls-1" width="2.538" height="15.581" transform="translate(145.037 71.04)"/>
    <path id="Path_25" data-name="Path 25" class="cls-1" d="M214.163,96.339V93.767a11.713,11.713,0,0,0,6.363,1.9c2.571,0,4.112-.868,4.112-2.346,0-1.767-2.185-1.926-4.756-2.6-3.309-.868-5.43-1.865-5.43-4.757,0-2.636,2.282-4.369,6.328-4.369a11.52,11.52,0,0,1,5.688,1.382v2.472a11.131,11.131,0,0,0-5.589-1.574c-2.669,0-3.825.933-3.825,2.154,0,1.607,2.025,2.055,4.627,2.635,2.988.674,5.556,1.8,5.556,4.723,0,2.86-2.792,4.565-6.618,4.565A12.437,12.437,0,0,1,214.163,96.339Z" transform="translate(-62.734 -10.939)"/>
    <path id="Path_26" data-name="Path 26" class="cls-1" d="M132.2,121.571" transform="translate(-29.459 -27.171)"/>
    <g id="Group_96" data-name="Group 96" transform="translate(134.599 54.647)">
      <path id="Path_27" data-name="Path 27" class="cls-1" d="M209.008,59.408a16.208,16.208,0,0,0-22.949,0l-.228.228,1.484,1.484.228-.228a14.11,14.11,0,0,1,19.979,0l.228.228,1.485-1.484Z" transform="translate(-185.831 -54.647)"/>
      <path id="Path_28" data-name="Path 28" class="cls-1" d="M199.612,62.109h-.186a11.405,11.405,0,0,0-8.161,3.641l-.208.23,1.514,1.491.265-.237a9.28,9.28,0,0,1,6.62-2.943h.159a9.348,9.348,0,0,1,6.98,3.2l.249.282,1.4-1.679-.19-.208A11.5,11.5,0,0,0,199.612,62.109Z" transform="translate(-187.953 -57.677)"/>
    </g>
    <path id="Path_29" data-name="Path 29" class="cls-1" d="M140.787,92.369a15.609,15.609,0,0,1-1.691,1.789,5.466,5.466,0,0,1-.888.667c-.13.085-.2.128-.2.128l0-.018a5.9,5.9,0,0,1-2.868.73,5.862,5.862,0,1,1,4.7-9.392l1.676-1.858a8.35,8.35,0,0,0-6.372-2.743,8.135,8.135,0,1,0,0,16.261,8.269,8.269,0,0,0,6.9-3.385Z" transform="translate(-27.24 -10.972)"/>
  </g>
</svg>
